[gd_scene load_steps=3 format=3 uid="uid://cp6go7p8vy13a"]

[ext_resource type="Script" path="res://Code/apis.gd" id="1_ddcc3"]
[ext_resource type="Script" path="res://Code/nexus/nexus_api.gd" id="2_lp7tt"]

[node name="Node" type="Node" node_paths=PackedStringArray("nexus")]
script = ExtResource("1_ddcc3")
nexus = NodePath("NexusAPI")

[node name="NexusAPI" type="Node" parent="."]
script = ExtResource("2_lp7tt")
