<?xml version="1.0" encoding="UTF-8" standalone="no"?>
<svg
   width="24px"
   height="24px"
   stroke-width="1.5"
   viewBox="0 0 24 24"
   fill="none"
   color="#000000"
   version="1.1"
   id="svg1"
   sodipodi:docname="filter.svg"
   inkscape:version="1.3.2 (091e20ef0f, 2023-11-25)"
   xmlns:inkscape="http://www.inkscape.org/namespaces/inkscape"
   xmlns:sodipodi="http://sodipodi.sourceforge.net/DTD/sodipodi-0.dtd"
   xmlns="http://www.w3.org/2000/svg"
   xmlns:svg="http://www.w3.org/2000/svg">
  <defs
     id="defs1" />
  <sodipodi:namedview
     id="namedview1"
     pagecolor="#505050"
     bordercolor="#ffffff"
     borderopacity="1"
     inkscape:showpageshadow="0"
     inkscape:pageopacity="0"
     inkscape:pagecheckerboard="1"
     inkscape:deskcolor="#d1d1d1"
     inkscape:zoom="35.333333"
     inkscape:cx="12"
     inkscape:cy="12"
     inkscape:window-width="1920"
     inkscape:window-height="1052"
     inkscape:window-x="0"
     inkscape:window-y="0"
     inkscape:window-maximized="1"
     inkscape:current-layer="svg1" />
  <path
     d="M3.99961 3H19.9997C20.552 3 20.9997 3.44764 20.9997 3.99987L20.9999 5.58569C21 5.85097 20.8946 6.10538 20.707 6.29295L14.2925 12.7071C14.105 12.8946 13.9996 13.149 13.9996 13.4142L13.9996 19.7192C13.9996 20.3698 13.3882 20.8472 12.7571 20.6894L10.7571 20.1894C10.3119 20.0781 9.99961 19.6781 9.99961 19.2192L9.99961 13.4142C9.99961 13.149 9.89425 12.8946 9.70672 12.7071L3.2925 6.29289C3.10496 6.10536 2.99961 5.851 2.99961 5.58579V4C2.99961 3.44772 3.44732 3 3.99961 3Z"
     stroke="#000000"
     stroke-width="1.5"
     stroke-linecap="round"
     stroke-linejoin="round"
     id="path1"
     style="fill:none;stroke:#ffffff;stroke-opacity:1" />
</svg>
